Case Study-Cyclistic Bike Share
…
For both groups of cyclists, I determined the average monthly ride duration.

full_data_cl %>% group_by(rider_type,month) %>% summarise(Mean_ride_len=mean(ride_length)) %>% arrange(month)

## `summarise()` has grouped output by 'rider_type'. You can override using the `.groups` argument.

## # A tibble: 24 x 3
## # Groups:   rider_type [2]
##    rider_type month    Mean_ride_len
##    <chr>      <ord>    <drtn>       
##  1 casual     January  22.37156 mins
##  2 member     January  12.11419 mins
##  3 casual     February 31.45308 mins
##  4 member     February 14.86279 mins
##  5 casual     March    32.34885 mins
##  6 member     March    13.76250 mins
##  7 casual     April    33.42479 mins
##  8 member     April    15.34168 mins
##  9 casual     May      44.48870 mins
## 10 member     May      19.42829 mins
## # ... with 14 more rows

full_data_cl %>% group_by(rider_type,month) %>% summarise(Median_ride_len=median(ride_length)) %>% arrange(month)

## `summarise()` has grouped output by 'rider_type'. You can override using the `.groups` argument.

## # A tibble: 24 x 3
## # Groups:   rider_type [2]
##    rider_type month    Median_ride_len
##    <chr>      <ord>    <drtn>         
##  1 casual     January  13 mins        
##  2 member     January   9 mins        
##  3 casual     February 17 mins        
##  4 member     February 10 mins        
##  5 casual     March    19 mins        
##  6 member     March    10 mins        
##  7 casual     April    20 mins        
##  8 member     April    11 mins        
##  9 casual     May      27 mins        
## 10 member     May      15 mins        
## # ... with 14 more rows

I computed the number of rides taken by both types of cyclists in different months of the year.

full_data_cl %>% group_by(rider_type,month) %>% summarise(No_of_rides=n(),.groups = 'drop') %>% arrange(month)

## # A tibble: 24 x 3
##    rider_type month    No_of_rides
##    <chr>      <ord>          <int>
##  1 casual     January        14614
##  2 member     January        68345
##  3 casual     February        8526
##  4 member     February       33992
##  5 casual     March          75232
##  6 member     March         129014
##  7 casual     April         143156
##  8 member     April         236716
##  9 casual     May            86203
## 10 member     May           112027
## # ... with 14 more rows
…
